{
  "generator-jhipster": {
    "promptValues": {
      "packageName": "com.mck.service.<SERVICEINSTANCE>"
    },
    "jhipsterVersion": "5.0.1",
    "applicationType": "microservice",
    "baseName": "<SERVICEINSTANCE>",
    "packageName": "com.mck.service.<SERVICEINSTANCE>",
    "packageFolder": "com/mck/service/<SERVICEINSTANCE>",
    "serverPort": "8081",
    "authenticationType": "jwt",
    "cacheProvider": "hazelcast",
    "enableHibernateCache": true,
    "websocket": false,
    "databaseType": "sql",
    "devDatabaseType": "h2Disk",
    "prodDatabaseType": "mysql",
    "searchEngine": false,
    "messageBroker": false,
    "serviceDiscoveryType": "eureka",
    "buildTool": "maven",
    "enableSwaggerCodegen": false,
    "jwtSecretKey": "fd5b487fa5c1e52317571456e615ed856f812bb7",
    "enableTranslation": false,
    "testFrameworks": [],
    "jhiPrefix": "jhi",
    "clientPackageManager": "yarn",
    "skipClient": true,
    "skipUserManagement": true
  }
}
